2019-08-19 00:02:16 [scrapy] DEBUG: Retrying <GET https://markets.businessinsider.com/commodities/coal-price> (failed 1 times): [<twisted.python.failure.Failure twisted.internet.error.ConnectionLost: Connection to the other side was lost in a non-clean fashion: Connection lost.>]
2019-08-19 00:02:28 [scrapy] DEBUG: Crawled (200) <GET https://markets.businessinsider.com/commodities/coal-price> (referer: None)
2019-08-19 00:02:28 [scrapy] DEBUG: Scraped from <200 https://markets.businessinsider.com/commodities/coal-price>
{'Coal': '48.80'}
2019-08-19 00:02:28 [scrapy] INFO: Closing spider (finished)
2019-08-19 00:02:28 [scrapy] INFO: Dumping Scrapy stats:
{'downloader/exception_count': 1,
 'downloader/exception_type_count/twisted.web._newclient.ResponseNeverReceived': 1,
 'downloader/request_bytes': 496,
 'downloader/request_count': 2,
 'downloader/request_method_count/GET': 2,
 'downloader/response_bytes': 17813,
 'downloader/response_count': 1,
 'downloader/response_status_count/200': 1,
 'finish_reason': 'finished',
 'finish_time': datetime.datetime(2019, 8, 18, 17, 2, 28, 859573),
 'item_scraped_count': 1,
 'log_count/DEBUG': 62,
 'log_count/INFO': 249,
 'response_received_count': 1,
 'retry/count': 1,
 'retry/reason_count/twisted.web._newclient.ResponseNeverReceived': 1,
 'scheduler/dequeued': 2,
 'scheduler/dequeued/memory': 2,
 'scheduler/enqueued': 2,
 'scheduler/enqueued/memory': 2,
 'start_time': datetime.datetime(2019, 8, 18, 17, 1, 56, 205726)}
2019-08-19 00:02:28 [scrapy] INFO: Spider closed (finished)
