2019-08-18 23:49:04 [scrapy] DEBUG: Crawled (200) <GET https://markets.businessinsider.com/commodities/coal-price> (referer: None)
2019-08-18 23:49:04 [scrapy] DEBUG: Scraped from <200 https://markets.businessinsider.com/commodities/coal-price>
{'Coal': '48.80'}
2019-08-18 23:49:04 [scrapy] INFO: Closing spider (finished)
2019-08-18 23:49:04 [scrapy] INFO: Dumping Scrapy stats:
{'downloader/request_bytes': 248,
 'downloader/request_count': 1,
 'downloader/request_method_count/GET': 1,
 'downloader/response_bytes': 17817,
 'downloader/response_count': 1,
 'downloader/response_status_count/200': 1,
 'finish_reason': 'finished',
 'finish_time': datetime.datetime(2019, 8, 18, 16, 49, 4, 755586),
 'item_scraped_count': 1,
 'log_count/DEBUG': 44,
 'log_count/INFO': 201,
 'response_received_count': 1,
 'scheduler/dequeued': 1,
 'scheduler/dequeued/memory': 1,
 'scheduler/enqueued': 1,
 'scheduler/enqueued/memory': 1,
 'start_time': datetime.datetime(2019, 8, 18, 16, 48, 47, 893016)}
2019-08-18 23:49:04 [scrapy] INFO: Spider closed (finished)
