2019-08-18 23:22:15 [scrapy] DEBUG: Crawled (200) <GET https://finance.naver.com/marketindex/?tabSel=gold#tab_section> (referer: None)
2019-08-18 23:22:15 [scrapy] DEBUG: Scraped from <200 https://finance.naver.com/marketindex/?tabSel=gold>
{'Oil': '58.35'}
2019-08-18 23:22:15 [scrapy] INFO: Closing spider (finished)
2019-08-18 23:22:15 [scrapy] INFO: Dumping Scrapy stats:
{'downloader/request_bytes': 240,
 'downloader/request_count': 1,
 'downloader/request_method_count/GET': 1,
 'downloader/response_bytes': 9057,
 'downloader/response_count': 1,
 'downloader/response_status_count/200': 1,
 'finish_reason': 'finished',
 'finish_time': datetime.datetime(2019, 8, 18, 16, 22, 15, 390472),
 'item_scraped_count': 1,
 'log_count/DEBUG': 4,
 'log_count/INFO': 15,
 'response_received_count': 1,
 'scheduler/dequeued': 1,
 'scheduler/dequeued/memory': 1,
 'scheduler/enqueued': 1,
 'scheduler/enqueued/memory': 1,
 'start_time': datetime.datetime(2019, 8, 18, 16, 22, 14, 589100)}
2019-08-18 23:22:15 [scrapy] INFO: Spider closed (finished)
