2019-08-18 23:31:54 [scrapy] DEBUG: Crawled (200) <GET http://www.kitcometals.com/> (referer: None)
2019-08-18 23:31:54 [scrapy] DEBUG: Scraped from <200 http://www.kitcometals.com/>
{'Copper': '2.5849', 'Zinc': '1.0239', 'Lead': '0.9296'}
2019-08-18 23:31:54 [scrapy] INFO: Closing spider (finished)
2019-08-18 23:31:54 [scrapy] INFO: Dumping Scrapy stats:
{'downloader/request_bytes': 218,
 'downloader/request_count': 1,
 'downloader/request_method_count/GET': 1,
 'downloader/response_bytes': 76295,
 'downloader/response_count': 1,
 'downloader/response_status_count/200': 1,
 'finish_reason': 'finished',
 'finish_time': datetime.datetime(2019, 8, 18, 16, 31, 54, 157989),
 'item_scraped_count': 1,
 'log_count/DEBUG': 12,
 'log_count/INFO': 51,
 'response_received_count': 1,
 'scheduler/dequeued': 1,
 'scheduler/dequeued/memory': 1,
 'scheduler/enqueued': 1,
 'scheduler/enqueued/memory': 1,
 'start_time': datetime.datetime(2019, 8, 18, 16, 31, 52, 28958)}
2019-08-18 23:31:54 [scrapy] INFO: Spider closed (finished)
