2019-08-19 02:03:55 [scrapy] DEBUG: Crawled (200) <GET https://www.cmegroup.com/CmeWS/mvc/Quotes/Future/4655/G?quoteCodes> (referer: None)
2019-08-19 02:03:55 [scrapy] DEBUG: Scraped from <200 https://www.cmegroup.com/CmeWS/mvc/Quotes/Future/4655/G?quoteCodes>
{'Diesel': '2.9978'}
2019-08-19 02:03:55 [scrapy] INFO: Closing spider (finished)
2019-08-19 02:03:55 [scrapy] INFO: Dumping Scrapy stats:
{'downloader/request_bytes': 256,
 'downloader/request_count': 1,
 'downloader/request_method_count/GET': 1,
 'downloader/response_bytes': 5844,
 'downloader/response_count': 1,
 'downloader/response_status_count/200': 1,
 'finish_reason': 'finished',
 'finish_time': datetime.datetime(2019, 8, 18, 19, 3, 55, 475866),
 'item_scraped_count': 1,
 'log_count/DEBUG': 6,
 'log_count/INFO': 15,
 'response_received_count': 1,
 'scheduler/dequeued': 1,
 'scheduler/dequeued/memory': 1,
 'scheduler/enqueued': 1,
 'scheduler/enqueued/memory': 1,
 'start_time': datetime.datetime(2019, 8, 18, 19, 3, 54, 715718)}
2019-08-19 02:03:55 [scrapy] INFO: Spider closed (finished)
