2019-08-19 00:16:35 [scrapy] DEBUG: Crawled (200) <GET http://www.samsunggold.co.kr> (referer: None)
2019-08-19 00:16:35 [scrapy] DEBUG: Scraped from <200 http://www.samsunggold.co.kr>
{'Gold': '1,509.05', 'Silver': '17.16'}
2019-08-19 00:16:35 [scrapy] INFO: Closing spider (finished)
2019-08-19 00:16:35 [scrapy] INFO: Dumping Scrapy stats:
{'downloader/request_bytes': 220,
 'downloader/request_count': 1,
 'downloader/request_method_count/GET': 1,
 'downloader/response_bytes': 141639,
 'downloader/response_count': 1,
 'downloader/response_status_count/200': 1,
 'finish_reason': 'finished',
 'finish_time': datetime.datetime(2019, 8, 18, 17, 16, 35, 713430),
 'item_scraped_count': 1,
 'log_count/DEBUG': 10,
 'log_count/INFO': 30,
 'response_received_count': 1,
 'scheduler/dequeued': 1,
 'scheduler/dequeued/memory': 1,
 'scheduler/enqueued': 1,
 'scheduler/enqueued/memory': 1,
 'start_time': datetime.datetime(2019, 8, 18, 17, 16, 34, 724267)}
2019-08-19 00:16:35 [scrapy] INFO: Spider closed (finished)
